
<svg width="147px" height="147px" viewBox="0 0 147 147" version="1.1" xmlns="http://www.w3.org/2000/svg" xmlns:xlink="http://www.w3.org/1999/xlink">
    <!-- Generator: Sketch 43 (38999) - http://www.bohemiancoding.com/sketch -->
    <desc>Created with Sketch.</desc>
    <defs></defs>
    <g id="Page-1" stroke="none" stroke-width="1" fill="none" fill-rule="evenodd">
        <g id="Artboard" transform="translate(-710.000000, -10.000000)">
            <g id="Group" transform="translate(710.000000, 10.000000)">
                <circle id="Oval" fill="#FFFFFF" cx="73.5" cy="73.5" r="73.5"></circle>
                <g id="logo" transform="translate(18.000000, 31.000000)">
                    <rect id="Rectangle-path" fill="#FFFFFF" fill-rule="nonzero" x="0" y="0" width="109.705357" height="91"></rect>
                    <polygon id="Shape" stroke="#FFFFFF" stroke-width="0.35" fill="#FFC400" fill-rule="nonzero" points="4.125 68.6 4.125 87 26.0267857 87 104.696429 22 104.696429 4 82.3035714 4"></polygon>
                    <polygon id="Shape" stroke="#FFFFFF" stroke-width="0.35" fill="#FFC400" fill-rule="nonzero" points="76.3125 6 78.375 4 4.22321429 4 4.22321429 6"></polygon>
                    <polygon id="Shape" stroke="#FFFFFF" stroke-width="0.3" fill="#FFC400" fill-rule="nonzero" points="32.8035714 85 30.6428571 87.1 104.794643 87.1 104.794643 85"></polygon>
                    <path d="M15.4196429,40.1 C21.6632896,40.1287468 26.7767929,35.05577 26.9107143,28.7 L26.9107143,9.7 L15.4196429,9.7 L15.4196429,40.1 Z" id="Shape" fill="#000000" fill-rule="nonzero"></path>
                    <path d="M4.61607143,28.6 C4.61607137,32.6728278 6.75009859,36.4362758 10.2142857,38.4726897 C13.6784727,40.5091036 17.9465273,40.5091036 21.4107143,38.4726897 C24.8749014,36.4362758 27.0089286,32.6728278 27.0089286,28.6 L27.0089286,9.6 L4.61607143,9.6 L4.61607143,28.6 Z" id="Shape" stroke="#000000" stroke-width="0.55"></path>
                    <polygon id="Shape" fill="#FFFFFF" fill-rule="nonzero" points="16.3035714 11.8 18.5625 12.6 19.7410714 17.7 20.0357143 12.4 21.4107143 16.5 22.5892857 12.1 22.8839286 17.5 23.9642857 12.3 26.4196429 11.2 26.4196429 13.8 23.7678571 17.7 26.6160714 17.4 23.9642857 19.9 26.6160714 21.4 24.1607143 22.7 26.5178571 26 23.2767857 25.1 26.2232143 31.3 21.8035714 27.1 22.9821429 32.6 21.0178571 34.2 19.25 32.5 20.5267857 27.3 16.0089286 31.9 19.3482143 25.2 16.1071429 26.3 18.4642857 22.9 16.1071429 21.5 18.7589286 20.1 16.0089286 17.8 18.8571429 17.9 16.2053571 14.4"></polygon>
                    <path d="M7.95535714,23.1 C7.9644918,23.2063667 8.04731841,23.2906993 8.15178571,23.3 C8.74107143,23.3 9.23214286,22.9 9.82142857,23.2 C10.0609865,23.3499187 10.2090532,23.6137466 10.2142857,23.9 L10.3125,23.9 C10.5195233,23.3641796 11.0238415,23.0086882 11.5892857,23 C11.79077,22.9842383 11.9929988,23.0185559 12.1785714,23.1 C12.4732143,23.2 12.7678571,23.5 13.0625,23.6 C13.1607143,23.6 13.2589286,23.5 13.3571429,23.5 L13.3571429,23.5 C13.283553,23.7060031 13.1455216,23.8816795 12.9642857,24 C12.8660714,24 12.7678571,24.1 12.6696429,24.1 L12.1785714,24.1 C11.8839286,24 11.5892857,23.6 11.2946429,23.5 C11.0373014,23.5116841 10.7929296,23.6183191 10.6071429,23.8 C10.5967637,23.8758076 10.5622642,23.9460611 10.5089286,24 C10.5089286,24.7 10.7053571,25.5 10.0178571,26.1 C9.91964286,26.2 9.82142857,26.2 9.625,26.3 L9.23214286,26.3 C8.33658928,26.2649074 7.44743681,26.1307861 6.58035714,25.9 L6.1875,25.9 C5.89285714,26 5.89285714,26.4 6.08928571,26.7 C6.43960999,27.1630318 6.98893289,27.4240434 7.5625,27.4 C8.0490962,27.4830214 8.54260051,27.5165198 9.03571429,27.5 L10.2142857,27.5 C10.2493743,27.5 10.2817975,27.4809401 10.2993418,27.45 C10.3168861,27.4190599 10.3168861,27.3809401 10.2993418,27.35 C10.2817975,27.3190599 10.2493743,27.3 10.2142857,27.3 L10.1160714,27.3 C10.1160714,27.3 10.0178571,27.2 10.1160714,27.2 L10.2142857,27.2 C10.3125,27.1 10.4107143,27.1 10.5089286,27 L10.5089286,26.9 C10.4107143,26.9 10.3125,26.9 10.3125,26.8 L10.9017857,25.9 L10.9017857,25.6 C11.071923,25.5739159 11.2456606,25.6092951 11.3928571,25.7 C11.3928571,25.6 11.4910714,25.6 11.6875,25.5 C12.1345449,25.4431645 12.5869083,25.5494541 12.9642857,25.8 L13.2589286,25.8 C13.3131708,25.8 13.3571429,25.8447715 13.3571429,25.9 L13.3571429,26 C13.2589286,26.1 13.2589286,26.3 13.1607143,26.4 C13.0625,26.5 13.0625,26.5 12.9642857,26.6 C12.9378902,26.6263325 12.9230157,26.6623744 12.9230157,26.7 C12.9230157,26.7376256 12.9378902,26.7736675 12.9642857,26.8 C12.8660714,26.8 12.7678571,26.6 12.6696429,26.8 L12.5714286,26.8 L12.5714286,26.7 C12.4732143,26.7 12.4732143,26.8 12.375,26.9 L12.375,26.9 C12.375,26.8 12.1785714,26.8 12.1785714,26.9 L12.1785714,27.2 C12.4766069,27.2162607 12.7752393,27.182476 13.0625,27.1 C13.2589286,27 13.4553571,26.9 13.4553571,26.6 C13.6517857,26.6 13.75,26.7 13.6517857,26.9 C13.6517857,27.3 13.1607143,27.2 12.8660714,27.4 C12.8813575,27.5728218 12.8472503,27.7464583 12.7678571,27.9 C12.6696429,28 12.9642857,28.1 13.0625,28.1 C13.4553571,27.5 13.75,27 14.1428571,26.4 C13.8482143,26.2 13.9464286,25.9 14.0446429,25.7 C14.0610496,25.6386925 14.1064703,25.5897941 14.1656756,25.5697002 C14.224881,25.5496062 14.2900327,25.560977 14.3392857,25.6 C14.3392857,25.6 14.1428571,25.7 14.2410714,25.8 C14.3392857,25.9 14.3392857,26.1 14.4375,26.2 C14.5357143,26.1 14.4375,26 14.5357143,25.8 C14.6339286,25.6 14.7321429,25.7 14.8303571,25.6 C14.9285714,25.5 14.9285714,25.5 15.0267857,25.4 L15.2232143,25.4 C15.2232143,25.4 15.3214286,25.4 15.2232143,25.5 L15.125,25.5 L15.125,26 C15.0267857,26.1 14.9285714,26.1 14.8303571,26.2 L14.8303571,26.3 C15.0267857,26.2 15.125,25.9 15.4196429,26.1 C15.5549683,26.2679291 15.5923767,26.4964608 15.5178571,26.7 L15.4196429,26.6 C15.4196429,26.6552285 15.3756708,26.7 15.3214286,26.7 C15.125,26.7 14.9285714,26.6 14.8303571,26.7 C14.7321429,26.8 14.8303571,27.1 15.0267857,27.2 L15.125,27.1 L15.125,27.3 C14.8303571,27.4 14.5357143,27.4 14.4375,27.7 C14.2410714,28.2 13.9464286,28.8 13.75,29.3 C13.5535714,29.3 13.4553571,29.4 13.3571429,29.6 C13.2589286,29.8 13.4553571,29.8 13.3571429,29.9 C13.2589286,30 13.1607143,29.8 13.0625,29.9 L12.8660714,29.9 C13.4553571,30.4 13.9464286,30.9 14.5357143,31.4 L14.6339286,31.4 C14.7321429,31.3 14.7321429,31.2 14.9285714,31.1 C15.125,31 15.4196429,31.1 15.4196429,31.3 L15.4196429,31.5 C15.4196429,31.5 15.4196429,31.4 15.3214286,31.5 C15.2232143,31.6 15.2232143,31.7 15.125,31.7 C15.2232143,31.7 15.2232143,31.8 15.3214286,31.9 L15.3214286,32 C15.4553445,32.1283976 15.4947557,32.3290365 15.4196429,32.5 C15.3666672,32.5543054 15.2976682,32.5894321 15.2232143,32.6 C15.2232143,32.5 15.2232143,32.3 15.125,32.3 C15.0720243,32.3543054 15.0030254,32.3894321 14.9285714,32.4 C14.8303571,32.3 14.7321429,32.1 14.6339286,32 L14.5357143,32 L14.5357143,32.1 C14.5890499,32.1539389 14.6235494,32.2241924 14.6339286,32.3 C14.6339286,32.5 14.5357143,32.8 14.2410714,32.8 C14.2410714,32.7 14.3392857,32.7 14.3392857,32.6 C14.3392857,32.5 14.1428571,32.5 14.1428571,32.4 L14.1428571,31.9 C14.0446429,32.1 13.8482143,32.1 13.6517857,32.1 L13.6517857,32 L13.5535714,32 L13.5535714,32.1 C13.5535714,32.1 13.3571429,32.1 13.3571429,32 C13.3571429,31.9 13.4553571,31.7 13.5535714,31.5 C12.9874465,31.0657094 12.3971797,30.6650434 11.7857143,30.3 C11.6875,30.3 11.5892857,30.2 11.4910714,30.3 L11.4910714,30 C11.4910714,29.9447715 11.4470994,29.9 11.3928571,29.9 C10.8035714,29.8 10.3125,29.3 9.72321429,29.2 L9.72321429,29.2 C9.91964286,29.5 10.2142857,29.6 10.1160714,30 C10.0349932,30.2336566 9.85448418,30.4174477 9.625,30.5 C9.91616081,30.8518292 10.286912,31.1263689 10.7053571,31.3 C10.7817829,31.182689 10.9108478,31.1121637 11.0491071,31.1121637 C11.1873665,31.1121637 11.3164314,31.182689 11.3928571,31.3 L11.3928571,31.6 C11.2946429,31.6 11.3928571,31.4 11.2946429,31.4 C11.1964286,31.4 11.0982143,31.5 11,31.6 C11,31.6552285 11.043972,31.7 11.0982143,31.7 L11.1964286,31.7 C11.4347809,31.789473 11.5637826,32.0521674 11.4910714,32.3 C11.4910714,32.4 11.3928571,32.4 11.2946429,32.5 C11.3210384,32.4736675 11.3359129,32.4376256 11.3359129,32.4 C11.3359129,32.3623744 11.3210384,32.3263325 11.2946429,32.3 C11.1964286,32.2 11.0982143,32.3 10.9017857,32.3 C10.7053571,32.3 10.7053571,32.2 10.6071429,32 C10.5089286,32.1 10.6071429,32.3 10.6071429,32.5 L10.6071429,32.6 C10.5089286,32.6 10.4107143,32.7 10.3125,32.7 L10.4107143,32.6 C10.4107143,32.5 10.2142857,32.6 10.1160714,32.5 C10.0178571,32.4 10.2142857,32.3 10.2142857,32.1 C10.2142857,32.0447715 10.1703137,32 10.1160714,32 L10.0178571,32 C9.91964286,32.2 9.82142857,32.1 9.625,32.1 C9.42857143,32.1 9.625,32.2 9.625,32.2 C9.42857143,32.2 9.33035714,31.9 9.52678571,31.7 C9.13392857,31.4 8.74107143,31.3 8.34821429,31 L8.34821429,30.8 C8.44642857,30.6 8.74107143,30.5 8.74107143,30.3 C8.74107143,30.1 8.83928571,29.7 8.54464286,29.6 C8.05357143,29.7 7.66071429,30.1 7.16964286,30.2 C6.97321429,30.4 6.48214286,30.5 6.38392857,30.8 L6.38392857,30.9 C6.48214286,31.1 6.67857143,31.1 6.875,31 L6.97321429,31.1 C7.07142857,31.1 7.16964286,31.1 7.16964286,31.2 C7.16964286,31.3 7.16964286,31.5 7.07142857,31.5 C6.97321429,31.5 7.07142857,31.4 7.07142857,31.4 L6.77678571,31.4 L6.58035714,31.4 C6.58035714,31.5 6.67857143,31.6 6.58035714,31.7 C6.6345994,31.7 6.67857143,31.7447715 6.67857143,31.8 C6.65397781,31.9503743 6.58553792,32.0897428 6.48214286,32.2 L6.38392857,32.2 C6.38392857,32.1 6.48214286,32.1 6.38392857,32 C6.28571429,31.9 6.1875,31.9 6.08928571,31.9 C5.99107143,31.9 6.08928571,31.7 5.99107143,31.7 C5.89285714,31.7 5.99107143,31.9 5.99107143,31.9 C5.99107143,31.9 5.79464286,32 5.59821429,32 C5.59821429,31.9 5.79464286,31.9 5.79464286,31.8 L5.59821429,31.6 C5.57753304,31.4383714 5.65524022,31.2801313 5.79464286,31.2 L5.79464286,31.1 L5.69642857,31.1 L5.59821429,31 L5.5,31 L5.5,31.2 C5.40178571,31.1 5.30357143,31 5.40178571,30.8 C5.5,30.6 5.59821429,30.7 5.59821429,30.6 L5.79464286,30.6 C6.08928571,30.3 6.08928571,29.6 6.58035714,29.5 C7.07142857,29 7.66071429,28.6 8.15178571,28.1 C7.67211093,27.9673748 7.17129204,27.9333798 6.67857143,28 C6.58035714,28 6.38392857,28 6.38392857,28.2 C6.38392857,28.4 6.48214286,28.4 6.48214286,28.6 C6.4288072,28.6539389 6.39430772,28.7241924 6.38392857,28.8 L6.28571429,28.8 C6.28571429,28.7 6.28571429,28.6 6.1875,28.6 L6.08928571,28.6 C5.99614252,28.5626379 5.9222633,28.4878067 5.88508308,28.3931662 C5.84790287,28.2985256 5.85071547,28.1924599 5.89285714,28.1 C6.1875,27.8 6.58035714,27.9 6.875,27.7 C6.58035714,27.4 6.1875,27.3 5.99107143,26.9 C5.75488561,26.5058158 5.83852036,25.9948834 6.1875,25.7 C6.58035714,25.4 7.07142857,25.6 7.5625,25.3 C7.85714286,25.1 7.75892857,24.7 7.75892857,24.4 C7.77533529,24.3386925 7.82075598,24.2897941 7.87996136,24.2697002 C7.93916675,24.2496062 8.00431842,24.260977 8.05357143,24.3 L7.95535714,24.4 C7.95535714,24.7 8.15178571,25 8.05357143,25.3 C7.93736375,25.4845311 7.76482451,25.6250721 7.5625,25.7 C8.05357143,25.8 8.64285714,25.8 8.83928571,25.4 C8.9375,25.2 8.74107143,25 8.83928571,24.7 C8.86133269,24.6176355 8.91679893,24.5487353 8.99179152,24.5105573 C9.06678411,24.4723792 9.15419971,24.4685396 9.23214286,24.5 C9.1788072,24.5539389 9.14430772,24.6241924 9.13392857,24.7 C9.13392857,24.9 9.33035714,25.1 9.42857143,25.3 C9.52678571,25.5 9.33035714,25.8 9.13392857,26 C9.35179341,26.0894029 9.58769254,26.1237155 9.82142857,26.1 C10.0178571,26 10.3125,26 10.5089286,25.7 C10.5048408,25.5599993 10.5388298,25.4215714 10.6071429,25.3 C10.5884892,25.0236296 10.5219894,24.7527941 10.4107143,24.5 C10.3371244,24.2939969 10.199093,24.1183205 10.0178571,24 C9.82142857,24 9.625,23.9 9.42857143,24 C8.98615017,24.2220255 8.4605077,24.1837969 8.05357143,23.9 C7.95535714,23.8 7.95535714,23.6 7.85714286,23.5 L7.85714286,22.9 C7.85714286,22.8 7.75892857,22.7 7.66071429,22.6 C7.79821496,22.5958379 7.93417094,22.6304449 8.05357143,22.7 C7.85714286,22.7 7.85714286,22.9 7.95535714,23.1 Z" id="Shape" fill="#000000" fill-rule="nonzero"></path>
                    <path d="M7.85714286,13.1 C7.86627751,13.2063667 7.94910412,13.2906993 8.05357143,13.3 C8.64285714,13.3 9.13392857,12.9 9.72321429,13.2 C9.9627722,13.3499187 10.1108389,13.6137466 10.1160714,13.9 L10.2142857,13.9 C10.421309,13.3641796 10.9256272,13.0086882 11.4910714,13 C11.6925558,12.9842383 11.8947845,13.0185559 12.0803571,13.1 C12.375,13.2 12.6696429,13.5 12.9642857,13.6 C13.0625,13.6 13.1607143,13.5 13.2589286,13.5 L13.2589286,13.5 C13.1853387,13.7060031 13.0473073,13.8816795 12.8660714,14 C12.7678571,14 12.6696429,14.1 12.5714286,14.1 L12.0803571,14.1 C11.7857143,14 11.4910714,13.6 11.1964286,13.5 C10.9390871,13.5116841 10.6947153,13.6183191 10.5089286,13.8 C10.4985494,13.8758076 10.4640499,13.9460611 10.4107143,14 C10.4107143,14.7 10.6071429,15.5 9.91964286,16.1 C9.82142857,16.2 9.72321429,16.2 9.52678571,16.3 L9.13392857,16.3 C8.23837499,16.2649074 7.34922252,16.1307861 6.48214286,15.9 L6.08928571,15.9 C5.79464286,16 5.79464286,16.4 5.99107143,16.7 C6.34139571,17.1630318 6.8907186,17.4240434 7.46428571,17.4 C7.95088192,17.4830214 8.44438622,17.5165198 8.9375,17.5 L10.1160714,17.5 C10.1421195,17.5 10.1671007,17.4894643 10.1855194,17.4707107 C10.2039382,17.451957 10.2142857,17.4265216 10.2142857,17.4 C10.2142857,17.3 10.2142857,17.3 10.1160714,17.3 L10.0178571,17.3 C10.0178571,17.3 9.91964286,17.2 10.0178571,17.2 L10.1160714,17.2 C10.2142857,17.1 10.3125,17.1 10.4107143,17 L10.4107143,16.9 C10.3125,16.9 10.2142857,16.9 10.2142857,16.8 L10.8035714,15.9 L10.8035714,15.6 C10.9737087,15.5739159 11.1474463,15.6092951 11.2946429,15.7 C11.2946429,15.6 11.3928571,15.6 11.5892857,15.5 C12.0363306,15.4431645 12.488694,15.5494541 12.8660714,15.8 L13.1607143,15.8 C13.2149565,15.8 13.2589286,15.8447715 13.2589286,15.9 L13.2589286,16 C13.1607143,16.1 13.1607143,16.3 13.0625,16.4 C12.9642857,16.5 12.9642857,16.5 12.8660714,16.6 C12.8396759,16.6263325 12.8248014,16.6623744 12.8248014,16.7 C12.8248014,16.7376256 12.8396759,16.7736675 12.8660714,16.8 C12.7678571,16.8 12.6696429,16.6 12.5714286,16.8 L12.4732143,16.8 L12.4732143,16.7 C12.375,16.7 12.375,16.8 12.2767857,16.9 L12.2767857,16.9 C12.2767857,16.8 12.0803571,16.8 12.0803571,16.9 L12.0803571,17.2 C12.3783927,17.2162607 12.677025,17.182476 12.9642857,17.1 C13.1607143,17 13.3571429,16.9 13.3571429,16.6 C13.5535714,16.6 13.6517857,16.7 13.5535714,16.9 C13.5535714,17.3 13.0625,17.2 12.7678571,17.4 C12.7831432,17.5728218 12.749036,17.7464583 12.6696429,17.9 C12.5714286,18 12.8660714,18.1 12.9642857,18.1 C13.3571429,17.5 13.6517857,17 14.0446429,16.4 C13.75,16.2 13.8482143,15.9 13.9464286,15.7 C13.9628353,15.6386925 14.008256,15.5897941 14.0674614,15.5697002 C14.1266667,15.5496062 14.1918184,15.560977 14.2410714,15.6 C14.2410714,15.6 14.0446429,15.7 14.1428571,15.8 C14.2410714,15.9 14.2410714,16.1 14.3392857,16.2 C14.4375,16.1 14.3392857,16 14.4375,15.8 C14.5357143,15.6 14.6339286,15.7 14.7321429,15.6 C14.8303571,15.5 14.8303571,15.5 14.9285714,15.4 L15.125,15.4 C15.125,15.4 15.2232143,15.4 15.125,15.5 L15.0267857,15.5 L15.0267857,16 C14.9285714,16.1 14.8303571,16.1 14.7321429,16.2 L14.7321429,16.3 C14.9285714,16.2 15.0267857,15.9 15.3214286,16.1 C15.456754,16.2679291 15.4941625,16.4964608 15.4196429,16.7 L15.3214286,16.6 C15.3214286,16.6552285 15.2774565,16.7 15.2232143,16.7 C15.0267857,16.7 14.8303571,16.6 14.7321429,16.7 C14.6339286,16.8 14.7321429,17.1 14.9285714,17.2 L15.0267857,17.1 L15.0267857,17.3 C14.7321429,17.4 14.4375,17.4 14.3392857,17.7 C14.1428571,18.2 13.8482143,18.8 13.6517857,19.3 C13.4553571,19.3 13.3571429,19.4 13.2589286,19.6 C13.1607143,19.8 13.3571429,19.8 13.2589286,19.9 C13.1607143,20 13.0625,19.8 12.9642857,19.9 L12.7678571,19.9 C13.3571429,20.4 13.8482143,20.9 14.4375,21.4 L14.5357143,21.4 C14.6339286,21.3 14.6339286,21.2 14.8303571,21.1 C15.0267857,21 15.3214286,21.1 15.3214286,21.3 L15.3214286,21.5 C15.3214286,21.5 15.3214286,21.4 15.2232143,21.5 C15.125,21.6 15.125,21.7 15.0267857,21.7 C15.125,21.7 15.125,21.8 15.2232143,21.9 L15.2232143,22 C15.3571302,22.1283976 15.3965415,22.3290365 15.3214286,22.5 C15.2684529,22.5543054 15.1994539,22.5894321 15.125,22.6 C15.125,22.5 15.125,22.3 15.0267857,22.3 C14.97381,22.3543054 14.9048111,22.3894321 14.8303571,22.4 C14.7321429,22.3 14.6339286,22.1 14.5357143,22 L14.4375,22 L14.4375,22.1 C14.4908357,22.1539389 14.5253351,22.2241924 14.5357143,22.3 C14.5357143,22.5 14.4375,22.8 14.1428571,22.8 C14.1428571,22.7 14.2410714,22.7 14.2410714,22.6 C14.2410714,22.5 14.0446429,22.5 14.0446429,22.4 L14.0446429,21.9 C13.9464286,22.1 13.75,22.1 13.5535714,22.1 L13.5535714,22 L13.4553571,22 L13.4553571,22.1 C13.4553571,22.1 13.2589286,22.1 13.2589286,22 C13.2589286,21.9 13.3571429,21.7 13.4553571,21.5 C12.8892322,21.0657094 12.2989654,20.6650434 11.6875,20.3 C11.5892857,20.3 11.4910714,20.2 11.3928571,20.3 L11.3928571,20 C11.3928571,19.9447715 11.3488851,19.9 11.2946429,19.9 C10.7053571,19.8 10.2142857,19.3 9.625,19.2 L9.625,19.2 C9.82142857,19.5 10.1160714,19.6 10.0178571,20 C9.93677896,20.2336566 9.75626989,20.4174477 9.52678571,20.5 C9.81794652,20.8518292 10.1886977,21.1263689 10.6071429,21.3 C10.6835686,21.182689 10.8126335,21.1121637 10.9508929,21.1121637 C11.0891522,21.1121637 11.2182171,21.182689 11.2946429,21.3 L11.2946429,21.6 C11.1964286,21.6 11.2946429,21.4 11.1964286,21.4 C11.0982143,21.4 11,21.5 10.9017857,21.6 C10.9017857,21.6552285 10.9457577,21.7 11,21.7 L11.0982143,21.7 C11.3365666,21.789473 11.4655683,22.0521674 11.3928571,22.3 C11.3928571,22.4 11.2946429,22.4 11.1964286,22.5 C11.2228241,22.4736675 11.2376986,22.4376256 11.2376986,22.4 C11.2376986,22.3623744 11.2228241,22.3263325 11.1964286,22.3 C11.0982143,22.2 11,22.3 10.8035714,22.3 C10.6071429,22.3 10.6071429,22.2 10.5089286,22 C10.4107143,22.1 10.5089286,22.3 10.5089286,22.5 L10.5089286,22.6 C10.4107143,22.6 10.3125,22.7 10.2142857,22.7 L10.3125,22.6 C10.3125,22.5 10.1160714,22.6 10.0178571,22.5 C9.91964286,22.4 10.1160714,22.3 10.1160714,22.1 C10.1160714,22.0734784 10.1057239,22.048043 10.0873051,22.0292893 C10.0688864,22.0105357 10.0439052,22 10.0178571,22 L9.91964286,22 C9.82142857,22.2 9.72321429,22.1 9.52678571,22.1 C9.33035714,22.1 9.52678571,22.2 9.52678571,22.2 C9.33035714,22.2 9.23214286,21.9 9.42857143,21.7 C9.03571429,21.4 8.64285714,21.3 8.25,21 L8.25,20.8 C8.34821429,20.6 8.64285714,20.5 8.64285714,20.3 C8.64285714,20.1 8.74107143,19.7 8.44642857,19.6 C7.95535714,19.7 7.5625,20.1 7.07142857,20.2 C6.875,20.4 6.38392857,20.5 6.28571429,20.8 L6.28571429,20.9 C6.38392857,21.1 6.58035714,21.1 6.77678571,21 L6.875,21.1 C6.97321429,21.1 7.07142857,21.1 7.07142857,21.2 C7.07142857,21.3 7.07142857,21.5 6.97321429,21.5 C6.875,21.5 6.97321429,21.4 6.97321429,21.4 L6.67857143,21.4 L6.48214286,21.4 C6.48214286,21.5 6.58035714,21.6 6.48214286,21.7 C6.53638511,21.7 6.58035714,21.7447715 6.58035714,21.8 C6.55576352,21.9503743 6.48732363,22.0897428 6.38392857,22.2 L6.28571429,22.2 C6.28571429,22.1 6.38392857,22.1 6.28571429,22 C6.1875,21.9 6.08928571,21.9 5.99107143,21.9 C5.89285714,21.9 5.99107143,21.7 5.89285714,21.7 C5.79464286,21.7 5.89285714,21.9 5.89285714,21.9 C5.89285714,21.9 5.69642857,22 5.5,22 C5.5,21.9 5.69642857,21.9 5.69642857,21.8 L5.5,21.6 C5.47931875,21.4383714 5.55702594,21.2801313 5.69642857,21.2 L5.69642857,21.1 L5.59821429,21.1 L5.5,21 L5.40178571,21 L5.40178571,21.2 C5.30357143,21.1 5.20535714,21 5.30357143,20.8 C5.40178571,20.6 5.5,20.7 5.5,20.6 L5.69642857,20.6 C5.99107143,20.3 5.99107143,19.6 6.48214286,19.5 C6.97321429,19 7.5625,18.6 8.05357143,18.1 C7.57389664,17.9673748 7.07307776,17.9333798 6.58035714,18 C6.48214286,18 6.28571429,18 6.28571429,18.2 C6.28571429,18.4 6.38392857,18.4 6.38392857,18.6 C6.33059291,18.6539389 6.29609343,18.7241924 6.28571429,18.8 L6.1875,18.8 C6.1875,18.7 6.1875,18.6 6.08928571,18.6 L5.99107143,18.6 C5.89792824,18.5626379 5.82404901,18.4878067 5.7868688,18.3931662 C5.74968858,18.2985256 5.75250119,18.1924599 5.79464286,18.1 C6.08928571,17.8 6.48214286,17.9 6.77678571,17.7 C6.48214286,17.4 6.08928571,17.3 5.89285714,16.9 C5.65667132,16.5058158 5.74030608,15.9948834 6.08928571,15.7 C6.48214286,15.4 6.97321429,15.6 7.46428571,15.3 C7.75892857,15.1 7.66071429,14.7 7.66071429,14.4 C7.677121,14.3386925 7.72254169,14.2897941 7.78174708,14.2697002 C7.84095246,14.2496062 7.90610413,14.260977 7.95535714,14.3 L7.85714286,14.4 C7.85714286,14.7 8.05357143,15 7.95535714,15.3 C7.83914946,15.4845311 7.66661022,15.6250721 7.46428571,15.7 C7.95535714,15.8 8.54464286,15.8 8.74107143,15.4 C8.83928571,15.2 8.64285714,15 8.74107143,14.7 C8.7631184,14.6176355 8.81858465,14.5487353 8.89357724,14.5105573 C8.96856983,14.4723792 9.05598542,14.4685396 9.13392857,14.5 C9.08059291,14.5539389 9.04609343,14.6241924 9.03571429,14.7 C9.03571429,14.9 9.23214286,15.1 9.33035714,15.3 C9.42857143,15.5 9.23214286,15.8 9.03571429,16 C9.25357912,16.0894029 9.48947825,16.1237155 9.72321429,16.1 C9.91964286,16 10.2142857,16 10.4107143,15.7 C10.4066266,15.5599993 10.4406156,15.4215714 10.5089286,15.3 C10.4902749,15.0236296 10.4237751,14.7527941 10.3125,14.5 C10.2389101,14.2939969 10.1008787,14.1183205 9.91964286,14 C9.72321429,14 9.52678571,13.9 9.33035714,14 C8.88793588,14.2220255 8.36229341,14.1837969 7.95535714,13.9 C7.85714286,13.8 7.85714286,13.6 7.75892857,13.5 L7.75892857,12.9 C7.75892857,12.8 7.66071429,12.7 7.5625,12.6 C7.70000067,12.5958379 7.83595666,12.6304449 7.95535714,12.7 C7.75892857,12.7 7.75892857,12.9 7.85714286,13.1 Z" id="Shape" fill="#000000" fill-rule="nonzero"></path>
                    <polygon id="Shape" fill="#000000" fill-rule="nonzero" points="48.9107143 73.8 51.9553571 69.9 49.1071429 69.9 49.1071429 69.3 52.7410714 69.3 52.7410714 69.9 49.6964286 73.8 52.8392857 73.8 52.8392857 74.4 48.9107143 74.4"></polygon>
                    <path d="M56.5714286,74.3 C56.4732143,74.4 56.375,74.4 56.1785714,74.4 C55.9821429,74.4 55.6875,74.2 55.6875,73.8 C55.3774679,74.1922803 54.9050422,74.4142874 54.4107143,74.4 C53.7232143,74.4 53.2321429,74.1 53.2321429,73.4 C53.2321429,72.7 53.8214286,72.4 54.4107143,72.3 C55,72.2 55.5892857,72.2 55.5892857,71.8 C55.5892857,71.4 55.1964286,71.2 54.8035714,71.2 C54.4107143,71.2 53.9196429,71.4 53.9196429,71.9 L53.3303571,71.9 C53.3303571,71 54.0178571,70.7 54.8035714,70.7 C55.5892857,70.7 56.1785714,70.8 56.1785714,71.7 L56.1785714,73.6 C56.1785714,73.9 56.1785714,74 56.375,74 L56.5714286,74 L56.5714286,74.3 L56.5714286,74.3 Z M55.5892857,72.5 C55.3928571,72.7 54.9017857,72.7 54.5089286,72.7 C54.1160714,72.7 53.8214286,72.9 53.8214286,73.4 C53.8214286,73.9 54.1160714,73.9 54.5089286,73.9 C55.2946429,73.9 55.5892857,73.4 55.5892857,73.1 L55.5892857,72.5 Z" id="Shape" fill="#000000" fill-rule="nonzero"></path>
                    <path d="M57.0625,69.3 L57.6517857,69.3 L57.6517857,71.2 L57.6517857,71.2 C57.8803487,70.8173987 58.2924653,70.5885207 58.7321429,70.6 C59.7142857,70.6 59.9107143,71.1 59.9107143,71.9 L59.9107143,74.3 L59.3214286,74.3 L59.3214286,71.8 C59.3269238,71.6126892 59.2562571,71.431372 59.1261155,71.2988642 C58.9959739,71.1663564 58.8178945,71.0944049 58.6339286,71.1 C58.3389047,71.0681036 58.0455301,71.1737025 57.835744,71.3873029 C57.6259578,71.6009034 57.5222446,71.899612 57.5535714,72.2 L57.5535714,74.2 L56.9642857,74.2 L56.9642857,69.3 L57.0625,69.3 Z" id="Shape" fill="#000000" fill-rule="nonzero"></path>
                    <path d="M60.8928571,70.7 L61.4821429,70.7 L61.4821429,71.3 L61.4821429,71.3 C61.7411667,70.8868276 62.1799853,70.626196 62.6607143,70.6 C63.6428571,70.6 63.8392857,71.1 63.8392857,71.9 L63.8392857,74.3 L63.25,74.3 L63.25,71.8 C63.2554952,71.6126892 63.1848285,71.431372 63.0546869,71.2988642 C62.9245453,71.1663564 62.746466,71.0944049 62.5625,71.1 C62.2674761,71.0681036 61.9741016,71.1737025 61.7643154,71.3873029 C61.5545292,71.6009034 61.4508161,71.899612 61.4821429,72.2 L61.4821429,74.2 L60.8928571,74.2 L60.8928571,70.7 Z" id="Shape" fill="#000000" fill-rule="nonzero"></path>
                    <path d="M66.4910714,69.5 L67.0803571,69.5 L67.0803571,70.2 L66.4910714,70.2 L66.4910714,69.5 Z M65.2142857,69.5 L65.8035714,69.5 L65.8035714,70.2 L65.2142857,70.2 L65.2142857,69.5 Z M66.9821429,72.5 C66.7857143,72.7 66.2946429,72.7 65.9017857,72.7 C65.5089286,72.7 65.2142857,72.9 65.2142857,73.4 C65.2142857,73.9 65.5089286,73.9 65.9017857,73.9 C66.6875,73.9 66.9821429,73.4 66.9821429,73.1 L66.9821429,72.5 Z M67.8660714,74.3 C67.7678571,74.4 67.6696429,74.4 67.4732143,74.4 C67.2767857,74.4 66.9821429,74.2 66.9821429,73.8 C66.6721107,74.1922803 66.1996851,74.4142874 65.7053571,74.4 C65.0178571,74.4 64.5267857,74.1 64.5267857,73.4 C64.5267857,72.7 65.1160714,72.4 65.7053571,72.3 C66.2946429,72.2 66.8839286,72.2 66.8839286,71.8 C66.8839286,71.4 66.4910714,71.2 66.0982143,71.2 C65.7053571,71.2 65.2142857,71.4 65.2142857,71.9 L64.625,71.9 C64.625,71 65.3125,70.7 66.0982143,70.7 C66.8839286,70.7 67.4732143,70.8 67.4732143,71.7 L67.4732143,73.6 C67.4732143,73.9 67.4732143,74 67.6696429,74 L67.8660714,74 L67.8660714,74.3 L67.8660714,74.3 Z" id="Shape" fill="#000000" fill-rule="nonzero"></path>
                    <path d="M68.4553571,70.7 L69.0446429,70.7 L69.0446429,71.5 L69.0446429,71.5 C69.2172654,70.9484565 69.7600645,70.608353 70.3214286,70.7 L70.3214286,71.3 C69.3392857,71.3 69.0446429,71.8 69.0446429,72.8 L69.0446429,74.4 L68.4553571,74.4 L68.4553571,70.7 Z" id="Shape" fill="#000000" fill-rule="nonzero"></path>
                    <polygon id="Shape" fill="#000000" fill-rule="nonzero" points="70.4196429 73.9 72.5803571 71.3 70.6160714 71.3 70.6160714 70.7 73.3660714 70.7 73.3660714 71.1 71.2053571 73.8 73.4642857 73.8 73.4642857 74.3 70.4196429 74.3 70.4196429 73.9"></polygon>
                    <path d="M74.8392857,70.7 L75.5267857,70.7 L75.5267857,71.2 L74.8392857,71.2 L74.8392857,73.4 C74.8392857,73.7 74.9375,73.7 75.2321429,73.7 L75.5267857,73.7 L75.5267857,74.2 L75.0357143,74.2 C74.4464286,74.2 74.1517857,74.1 74.1517857,73.4 L74.1517857,71.1 L73.5625,71.1 L73.5625,70.7 L74.1517857,70.7 L74.1517857,69.6 L74.7410714,69.6 L74.7410714,70.7 L74.8392857,70.7 Z" id="Shape" fill="#000000" fill-rule="nonzero"></path>
                    <path d="M79.2589286,73.2 C79.1483943,73.9288164 78.5083212,74.4501851 77.7857143,74.4 C76.6071429,74.4 76.1160714,73.6 76.1160714,72.5 C76.0723056,72.0183737 76.2274094,71.5399324 76.5441678,71.1794715 C76.8609262,70.8190107 77.3107514,70.6090621 77.7857143,70.6 C78.2872239,70.6193178 78.7539683,70.8659835 79.0581222,71.2724437 C79.3622761,71.6789039 79.4719628,72.2025599 79.3571429,72.7 L76.7053571,72.7 C76.6677919,73.0108412 76.7658655,73.3228347 76.9737136,73.5537007 C77.1815617,73.7845666 77.4783155,73.9111252 77.7857143,73.9 C77.9943907,73.9282464 78.2054718,73.8700509 78.3716403,73.7384589 C78.5378087,73.606867 78.6451648,73.4128859 78.6696429,73.2 L79.2589286,73.2 Z M78.6696429,72.2 C78.6696429,71.6477153 78.2299225,71.2 77.6875,71.2 C77.1450775,71.2 76.7053571,71.6477153 76.7053571,72.2 L78.6696429,72.2 Z" id="Shape" fill="#000000" fill-rule="nonzero"></path>
                    <polygon id="Shape" fill="#000000" fill-rule="nonzero" points="79.9464286 69.3 80.5357143 69.3 80.5357143 72.3 82.2053571 70.7 82.9910714 70.7 81.6160714 72 83.0892857 74.3 82.3035714 74.3 81.125 72.4 80.5357143 72.9 80.5357143 74.3 79.9464286 74.3"></polygon>
                    <path d="M86.625,74.3 C86.5267857,74.4 86.4285714,74.4 86.2321429,74.4 C86.0357143,74.4 85.7410714,74.2 85.7410714,73.8 C85.4310393,74.1922803 84.9586136,74.4142874 84.4642857,74.4 C83.7767857,74.4 83.2857143,74.1 83.2857143,73.4 C83.2857143,72.7 83.875,72.4 84.4642857,72.3 C85.0535714,72.2 85.6428571,72.2 85.6428571,71.8 C85.6428571,71.4 85.25,71.2 84.8571429,71.2 C84.4642857,71.2 83.9732143,71.4 83.9732143,71.9 L83.3839286,71.9 C83.3839286,71 84.0714286,70.7 84.8571429,70.7 C85.6428571,70.7 86.2321429,70.8 86.2321429,71.7 L86.2321429,73.6 C86.2321429,73.9 86.2321429,74 86.4285714,74 L86.625,74 L86.625,74.3 L86.625,74.3 Z M85.6428571,72.5 C85.4464286,72.7 84.9553571,72.7 84.5625,72.7 C84.1696429,72.7 83.875,72.9 83.875,73.4 C83.875,73.9 84.1696429,73.9 84.5625,73.9 C85.3482143,73.9 85.6428571,73.4 85.6428571,73.1 L85.6428571,72.5 Z" id="Shape" fill="#000000" fill-rule="nonzero"></path>
                    <path d="M87.1160714,70.7 L87.7053571,70.7 L87.7053571,71.2 L87.7053571,71.2 C87.975972,70.8131248 88.4175863,70.5883029 88.8839286,70.6 C89.2970632,70.5923084 89.6783206,70.8252221 89.8660714,71.2 C90.0946344,70.8173987 90.506751,70.5885207 90.9464286,70.6 C91.6339286,70.6 92.125,70.9 92.125,71.7 L92.125,74.4 L91.5357143,74.4 L91.5357143,72 C91.5357143,71.6 91.4375,71.2 90.8482143,71.2 C90.6087639,71.1818637 90.3734342,71.2708439 90.2036494,71.4437157 C90.0338646,71.6165876 89.9464732,71.856196 89.9642857,72.1 L89.9642857,74.4 L89.375,74.4 L89.375,72 C89.375,71.5 89.2767857,71.2 88.6875,71.2 C88.1911274,71.2229193 87.7798482,71.5998005 87.7053571,72.1 L87.7053571,74.4 L87.1160714,74.4 L87.1160714,70.7 Z" id="Shape" fill="#000000" fill-rule="nonzero"></path>
                    <path d="M93.0089286,70.7 L93.5982143,70.7 L93.5982143,71.2 L93.5982143,71.2 C93.8688291,70.8131248 94.3104435,70.5883029 94.7767857,70.6 C95.1899203,70.5923084 95.5711778,70.8252221 95.7589286,71.2 C95.9874915,70.8173987 96.3996082,70.5885207 96.8392857,70.6 C97.5267857,70.6 98.0178571,70.9 98.0178571,71.7 L98.0178571,74.4 L97.4285714,74.4 L97.4285714,72 C97.4285714,71.6 97.3303571,71.2 96.7410714,71.2 C96.501621,71.1818637 96.2662914,71.2708439 96.0965065,71.4437157 C95.9267217,71.6165876 95.8393304,71.856196 95.8571429,72.1 L95.8571429,74.4 L95.2678571,74.4 L95.2678571,72 C95.2678571,71.5 95.1696429,71.2 94.5803571,71.2 C94.0839845,71.2229193 93.6727053,71.5998005 93.5982143,72.1 L93.5982143,74.4 L93.0089286,74.4 L93.0089286,70.7 Z" id="Shape" fill="#000000" fill-rule="nonzero"></path>
                    <path d="M101.848214,73.2 C101.73768,73.9288164 101.097607,74.4501851 100.375,74.4 C99.1964286,74.4 98.7053571,73.6 98.7053571,72.5 C98.6615913,72.0183737 98.8166951,71.5399324 99.1334535,71.1794715 C99.4502119,70.8190107 99.9000372,70.6090621 100.375,70.6 C100.87651,70.6193178 101.343254,70.8659835 101.647408,71.2724437 C101.951562,71.6789039 102.061249,72.2025599 101.946429,72.7 L99.2946429,72.7 C99.2570776,73.0108412 99.3551512,73.3228347 99.5629993,73.5537007 C99.7708474,73.7845666 100.067601,73.9111252 100.375,73.9 C100.583676,73.9282464 100.794758,73.8700509 100.960926,73.7384589 C101.127094,73.606867 101.23445,73.4128859 101.258929,73.2 L101.848214,73.2 Z M101.357143,72.2 C101.357143,71.6477153 100.917423,71.2 100.375,71.2 C99.8325775,71.2 99.3928571,71.6477153 99.3928571,72.2 L101.357143,72.2 Z" id="Shape" fill="#000000" fill-rule="nonzero"></path>
                    <path d="M102.535714,70.7 L103.125,70.7 L103.125,71.5 L103.125,71.5 C103.297623,70.9484565 103.840422,70.608353 104.401786,70.7 L104.401786,71.3 C103.419643,71.3 103.125,71.8 103.125,72.8 L103.125,74.4 L102.535714,74.4 L102.535714,70.7 Z" id="Shape" fill="#000000" fill-rule="nonzero"></path>
                    <path d="M48.7142857,79.3 C48.65723,78.6939948 48.1314295,78.2478611 47.5357143,78.3 C46.9464286,78.3 46.4553571,78.5 46.4553571,79.2 C46.4553571,79.9 47.2410714,79.9 48.0267857,80.1 C48.8125,80.3 49.5982143,80.6 49.5982143,81.5 C49.5982143,82.6 48.6160714,83 47.6339286,83 C46.6517857,83 45.5714286,82.5 45.5714286,81.2 L46.1607143,81.2 C46.1607143,82 46.8482143,82.4 47.6339286,82.4 C48.2232143,82.4 48.9107143,82.2 48.9107143,81.5 C48.9107143,80.8 48.125,80.7 47.3392857,80.5 C46.5535714,80.3 45.7678571,80.1 45.7678571,79.2 C45.7944752,78.7573419 45.9992478,78.3454662 46.3338601,78.0615528 C46.6684725,77.7776393 47.1032879,77.6468341 47.5357143,77.7 C48.5178571,77.7 49.3035714,78.2 49.3035714,79.3 L48.7142857,79.3 Z" id="Shape" fill="#000000" fill-rule="nonzero"></path>
                    <path d="M52.6428571,80.4 C52.6183791,80.1871141 52.511023,79.993133 52.3448545,79.8615411 C52.1786861,79.7299491 51.967605,79.6717536 51.7589286,79.7 C50.875,79.7 50.6785714,80.4 50.6785714,81.1 C50.6785714,81.8 50.9732143,82.4 51.7589286,82.4 C52.0084848,82.4222205 52.2559012,82.3379568 52.4421028,82.1673284 C52.6283044,81.9967 52.736578,81.7550223 52.7410714,81.5 L53.3303571,81.5 C53.3104228,81.9001618 53.1319903,82.2749951 52.8358354,82.5388422 C52.5396804,82.8026893 52.1511128,82.9330017 51.7589286,82.9 C51.293882,82.9163448 50.8443741,82.7283582 50.524872,82.383911 C50.2053699,82.0394638 50.0467066,81.5717963 50.0892857,81.1 C50.0295781,80.6149226 50.1790996,80.1272862 50.499256,79.7629586 C50.8194123,79.3986309 51.2788313,79.1933126 51.7589286,79.2 C52.5118257,79.1145511 53.2001121,79.6401516 53.3303571,80.4 L52.6428571,80.4 Z" id="Shape" fill="#000000" fill-rule="nonzero"></path>
                    <path d="M53.9196429,77.8 L54.5089286,77.8 L54.5089286,79.7 L54.5089286,79.7 C54.7374915,79.3173987 55.1496082,79.0885207 55.5892857,79.1 C56.5714286,79.1 56.7678571,79.6 56.7678571,80.4 L56.7678571,82.8 L56.2767857,82.8 L56.2767857,80.3 C56.2822809,80.1126892 56.2116142,79.931372 56.0814726,79.7988642 C55.951331,79.6663564 55.7732517,79.5944049 55.5892857,79.6 C55.2942618,79.5681036 55.0008873,79.6737025 54.7911011,79.8873029 C54.5813149,80.1009034 54.4776018,80.399612 54.5089286,80.7 L54.5089286,82.7 L53.9196429,82.7 L53.9196429,77.8 L53.9196429,77.8 Z" id="Shape" fill="#000000" fill-rule="nonzero"></path>
                    <polygon id="Shape" fill="#000000" fill-rule="nonzero" points="57.75 77.8 58.3392857 77.8 58.3392857 82.8 57.75 82.8"></polygon>
                    <path d="M62.2678571,81.7 C62.1573229,82.4288164 61.5172497,82.9501851 60.7946429,82.9 C59.6160714,82.9 59.125,82.1 59.125,81 C59.0812342,80.5183737 59.236338,80.0399324 59.5530964,79.6794715 C59.8698548,79.3190107 60.31968,79.1090621 60.7946429,79.1 C61.2961525,79.1193178 61.7628969,79.3659835 62.0670508,79.7724437 C62.3712047,80.1789039 62.4808914,80.7025599 62.3660714,81.2 L59.7142857,81.2 C59.6767205,81.5108412 59.774794,81.8228347 59.9826421,82.0537007 C60.1904902,82.2845666 60.4872441,82.4111252 60.7946429,82.4 C61.0033193,82.4282464 61.2144004,82.3700509 61.3805688,82.2384589 C61.5467373,82.106867 61.6540934,81.9128859 61.6785714,81.7 L62.2678571,81.7 Z M61.7767857,80.7 C61.7767857,80.1477153 61.3370654,79.7 60.7946429,79.7 C60.2522203,79.7 59.8125,80.1477153 59.8125,80.7 L61.7767857,80.7 Z" id="Shape" fill="#000000" fill-rule="nonzero"></path>
                    <path d="M63.3482143,81.7 C63.3482143,82.2 63.8392857,82.4 64.3303571,82.4 C64.8214286,82.4 65.2142857,82.3 65.2142857,81.9 C65.2142857,81.5 64.625,81.4 64.0357143,81.2 C63.4464286,81 62.8571429,80.9 62.8571429,80.2 C62.8571429,79.5 63.5446429,79.2 64.2321429,79.2 C64.9196429,79.2 65.6071429,79.5 65.7053571,80.3 L65.1160714,80.3 C65.1160714,79.8 64.7232143,79.7 64.3303571,79.7 C63.9375,79.7 63.5446429,79.8 63.5446429,80.2 C63.5446429,80.6 64.1339286,80.7 64.7232143,80.8 C65.3125,80.9 65.9017857,81.1 65.9017857,81.8 C65.9017857,82.7 65.1160714,82.9 64.4285714,82.9 C63.7410714,82.9 62.9553571,82.6 62.9553571,81.7 L63.3482143,81.7 Z" id="Shape" fill="#000000" fill-rule="nonzero"></path>
                    <polygon id="Shape" fill="#000000" fill-rule="nonzero" points="69.9285714 82.8 69.3392857 82.8 68.6517857 79.9 68.6517857 79.9 67.9642857 82.8 67.375 82.8 66.1964286 79.2 66.8839286 79.2 67.6696429 82.2 67.6696429 82.2 68.3571429 79.2 69.0446429 79.2 69.8303571 82.2 69.8303571 82.2 70.6160714 79.2 71.2053571 79.2"></polygon>
                    <path d="M71.6964286,79.2 L72.2857143,79.2 L72.2857143,82.8 L71.6964286,82.8 L71.6964286,79.2 Z M72.2857143,78.6 L71.6964286,78.6 L71.6964286,77.9 L72.2857143,77.9 L72.2857143,78.6 Z" id="Shape" fill="#000000" fill-rule="nonzero"></path>
                    <path d="M76.2142857,82.5 C76.2142857,83.7 75.7232143,84.3 74.5446429,84.3 C73.8571429,84.3 73.0714286,84 73.0714286,83.2 L73.6607143,83.2 C73.6607143,83.6 74.1517857,83.8 74.5446429,83.8 C75.3303571,83.8 75.625,83.2 75.625,82.4 L75.625,82.2 L75.625,82.2 C75.405364,82.6053439 74.998302,82.8690932 74.5446429,82.9 C73.4642857,82.9 72.9732143,82.1 72.9732143,81.1 C72.9065921,80.6135294 73.0536814,80.1218644 73.3753474,79.7558189 C73.6970133,79.3897733 74.160634,79.1864699 74.6428571,79.2 C75.0877646,79.1651498 75.5111184,79.4002686 75.7232143,79.8 L75.7232143,79.8 L75.7232143,79.3 L76.3125,79.3 L76.3125,82.5 L76.2142857,82.5 L76.2142857,82.5 Z M75.625,81 C75.625,80.4 75.3303571,79.7 74.6428571,79.7 C73.9553571,79.7 73.5625,80.3 73.5625,81 C73.5625,81.7 73.7589286,82.4 74.5446429,82.4 C75.3303571,82.4 75.625,81.6 75.625,81 Z" id="Shape" fill="#000000" fill-rule="nonzero"></path>
                    <polygon id="Shape" fill="#000000" fill-rule="nonzero" points="77 80.6 78.9642857 80.6 78.9642857 81.2 77 81.2"></polygon>
                    <polygon id="Shape" fill="#000000" fill-rule="nonzero" points="79.8482143 77.8 80.5357143 77.8 80.5357143 80 83.0892857 80 83.0892857 77.8 83.7767857 77.8 83.7767857 82.8 83.0892857 82.8 83.0892857 80.5 80.5357143 80.5 80.5357143 82.8 79.8482143 82.8"></polygon>
                    <path d="M86.2321429,79.1 C86.7222235,79.0870603 87.1946499,79.2866122 87.5318135,79.648978 C87.8689772,80.0113438 88.0391615,80.5024362 88,81 C88.0559462,81.5015267 87.8914175,82.0025987 87.5504765,82.3690242 C87.2095355,82.7354497 86.7270165,82.9297904 86.2321429,82.9 C85.7420622,82.9129397 85.2696359,82.7133878 84.9324722,82.351022 C84.5953085,81.9886562 84.4251242,81.4975638 84.4642857,81 C84.4527733,79.984429 85.2355413,79.143151 86.2321429,79.1 L86.2321429,79.1 Z M86.2321429,82.4 C86.8214286,82.4 87.3125,81.9 87.3125,81 C87.3125,80.1 86.8214286,79.6 86.2321429,79.6 C85.6428571,79.6 85.1517857,80.1 85.1517857,81 C85.1517857,81.9 85.6428571,82.4 86.2321429,82.4 L86.2321429,82.4 Z" id="Shape" fill="#000000" fill-rule="nonzero"></path>
                    <polygon id="Shape" fill="#000000" fill-rule="nonzero" points="88.6875 77.8 89.2767857 77.8 89.2767857 82.8 88.6875 82.8"></polygon>
                    <path d="M90.5535714,81.7 C90.5535714,82.2 91.0446429,82.4 91.5357143,82.4 C92.0267857,82.4 92.4196429,82.3 92.4196429,81.9 C92.4196429,81.5 91.8303571,81.4 91.2410714,81.2 C90.6517857,81 90.0625,80.9 90.0625,80.2 C90.0625,79.5 90.75,79.2 91.4375,79.2 C92.125,79.2 92.8125,79.5 92.9107143,80.3 L92.3214286,80.3 C92.3214286,79.8 91.9285714,79.7 91.5357143,79.7 C91.1428571,79.7 90.75,79.8 90.75,80.2 C90.75,80.6 91.3392857,80.7 91.9285714,80.8 C92.5178571,80.9 93.1071429,81.1 93.1071429,81.8 C93.1071429,82.7 92.3214286,82.9 91.6339286,82.9 C90.9464286,82.9 90.1607143,82.6 90.1607143,81.7 L90.5535714,81.7 Z" id="Shape" fill="#000000" fill-rule="nonzero"></path>
                    <path d="M94.4821429,79.2 L95.1696429,79.2 L95.1696429,79.7 L94.4821429,79.7 L94.4821429,81.9 C94.4821429,82.2 94.5803571,82.2 94.875,82.2 L95.1696429,82.2 L95.1696429,82.7 L94.6785714,82.7 C94.0892857,82.7 93.7946429,82.6 93.7946429,81.9 L93.7946429,79.6 L93.2053571,79.6 L93.2053571,79.1 L93.7946429,79.1 L93.7946429,78 L94.3839286,78 L94.3839286,79.2 L94.4821429,79.2 L94.4821429,79.2 Z" id="Shape" fill="#000000" fill-rule="nonzero"></path>
                    <path d="M98.8035714,81.7 C98.6930372,82.4288164 98.052964,82.9501851 97.3303571,82.9 C96.1517857,82.9 95.6607143,82.1 95.6607143,81 C95.6169485,80.5183737 95.7720523,80.0399324 96.0888107,79.6794715 C96.405569,79.3190107 96.8553943,79.1090621 97.3303571,79.1 C97.8318667,79.1193178 98.2986112,79.3659835 98.6027651,79.7724437 C98.906919,80.1789039 99.0166057,80.7025599 98.9017857,81.2 L96.25,81.2 C96.2124348,81.5108412 96.3105083,81.8228347 96.5183564,82.0537007 C96.7262045,82.2845666 97.0229584,82.4111252 97.3303571,82.4 C97.5390336,82.4282464 97.7501147,82.3700509 97.9162831,82.2384589 C98.0824515,82.106867 98.1898076,81.9128859 98.2142857,81.7 L98.8035714,81.7 Z M98.3125,80.7 C98.3125,80.1477153 97.8727797,79.7 97.3303571,79.7 C96.7879346,79.7 96.3482143,80.1477153 96.3482143,80.7 L98.3125,80.7 Z" id="Shape" fill="#000000" fill-rule="nonzero"></path>
                    <path d="M99.4910714,79.2 L100.080357,79.2 L100.080357,82.8 L99.4910714,82.8 L99.4910714,79.2 Z M100.080357,78.6 L99.4910714,78.6 L99.4910714,77.9 L100.080357,77.9 L100.080357,78.6 Z" id="Shape" fill="#000000" fill-rule="nonzero"></path>
                    <path d="M101.0625,79.2 L101.651786,79.2 L101.651786,79.8 L101.651786,79.8 C101.91081,79.3868276 102.349628,79.126196 102.830357,79.1 C103.8125,79.1 104.008929,79.6 104.008929,80.4 L104.008929,82.8 L103.419643,82.8 L103.419643,80.3 C103.425138,80.1126892 103.354471,79.931372 103.22433,79.7988642 C103.094188,79.6663564 102.916109,79.5944049 102.732143,79.6 C102.437119,79.5681036 102.143744,79.6737025 101.933958,79.8873029 C101.724172,80.1009034 101.620459,80.399612 101.651786,80.7 L101.651786,82.7 L101.0625,82.7 L101.0625,79.2 Z" id="Shape" fill="#000000" fill-rule="nonzero"></path>
                </g>
            </g>
        </g>
    </g>
</svg>
